…
    ══ Results ═══════════════════════════════════
    Duration: 2.8 s
    
    [ FAIL 0 | WARN 0 | SKIP 0 | PASS 8 ]
    ```

* Data from previous build accessible with `get_seg_data()` function 

    ```r
    get_seg_data('VanderbiltComplete')
    # A tibble: 9,891 × 2                                                            
         BGM   REF
       <dbl> <dbl>
     1   121   127
     2   212   223
     3   161   166
     4   191   205
     5   189   210
     6   104   100
     7   293   296
     8   130   142
     9   261   231
    10   147   148
    # … with 9,881 more rows
    # ℹ Use `print(n = ...)` to see more rows
    ```
…
